<svg id="Group_104" data-name="Group 104" xmlns="http://www.w3.org/2000/svg" viewBox="1271.922 673.422 94.578 94.578">
  <defs>
    <style>
      .cls-1 {
        fill: #fff;
      }
    </style>
  </defs>
  <path id="Path_107" data-name="Path 107" class="cls-1" d="M1366.5,768h-94.578l94.578-94.578Z"/>
  <g id="Group_103" data-name="Group 103" transform="translate(1317.482 721.686)">
    <path id="Path_138" data-name="Path 138" d="M.72,34.936a.248.248,0,0,1-.272,0l-.381-.381a.247.247,0,0,1,0-.272l2.616-2.616a.247.247,0,0,1,.272,0l.381.381a.248.248,0,0,1,0,.272l-.926.926a.1.1,0,0,0,0,.163l3.978,3.978a.247.247,0,0,1,0,.272l-.381.381a.247.247,0,0,1-.272,0L1.81,34.009a.1.1,0,0,0-.163,0Z" transform="translate(0 -14.38)"/>
    <path id="Path_139" data-name="Path 139" d="M10.953,30.03a.1.1,0,0,0,0,.163L12.7,31.937a.247.247,0,0,1,0,.272l-.381.381a.248.248,0,0,1-.272,0L7.466,28.014a.247.247,0,0,1,0-.272l1.253-1.253a2.007,2.007,0,0,1,2.888,0,2.073,2.073,0,0,1,.545,1.962c-.054.218-.054.327.163.381l2.507.872c.163.054.218.218.054.327l-.381.381a.257.257,0,0,1-.327.054l-2.616-.926c-.054,0-.163-.054-.218.054ZM8.665,27.741a.1.1,0,0,0,0,.163l1.471,1.471a.1.1,0,0,0,.163,0l.654-.654a1.117,1.117,0,1,0-1.58-1.58Z" transform="translate(-3.367 -11.763)"/>
    <path id="Path_140" data-name="Path 140" d="M20,25.649c.054.109.054.163-.054.218l-.381.381a.18.18,0,0,1-.272,0L15.97,20.363a.135.135,0,0,1,.054-.218l.49-.49a.328.328,0,0,1,.218-.054l5.885,3.324a.18.18,0,0,1,0,.272l-.381.381a.328.328,0,0,1-.218.054l-1.362-.763a.135.135,0,0,0-.218.054l-1.144,1.144a.328.328,0,0,0-.054.218ZM18.64,23.2c.054.054.109.054.109,0l.872-.872c.054-.054.054-.109,0-.109l-2.4-1.471c-.054,0-.054-.054-.054,0h0V20.8Z" transform="translate(-7.24 -8.908)"/>
    <path id="Path_141" data-name="Path 141" d="M23.275,10.8c-.054-.109-.054-.163.054-.218l.436-.436c.109-.109.218-.054.272.054l3.27,5.885c.054.109.054.163-.054.218l-.545.545a.328.328,0,0,1-.218.054L20.6,13.638c-.109-.054-.163-.163-.054-.272l.436-.436c.054-.054.163-.109.218-.054L25.891,15.6H26v-.109Z" transform="translate(-9.313 -4.581)"/>
    <path id="Path_142" data-name="Path 142" d="M31.118,7.471a.1.1,0,0,0,.163,0l1.635-1.635a.248.248,0,0,1,.272,0l.381.381a.247.247,0,0,1,0,.272L31.936,8.125a.1.1,0,0,0,0,.163L33.3,9.651a.1.1,0,0,0,.163,0l1.744-1.744a.247.247,0,0,1,.272,0l.381.381a.247.247,0,0,1,0,.272L33.516,10.9a.247.247,0,0,1-.272,0L28.666,6.327a.248.248,0,0,1,0-.272l2.289-2.289a.247.247,0,0,1,.272,0l.381.381a.247.247,0,0,1,0,.272L29.865,6.164a.1.1,0,0,0,0,.163Z" transform="translate(-13.015 -1.684)"/>
    <path id="Path_143" data-name="Path 143" d="M40.4,4.044a.1.1,0,0,0,.163,0l1.689-1.689a.247.247,0,0,1,.272,0l.381.381a.247.247,0,0,1,0,.272L40.616,5.3a.247.247,0,0,1-.272,0L35.766.72a.247.247,0,0,1,0-.272l.381-.381a.247.247,0,0,1,.272,0Z" transform="translate(-16.246)"/>
    <path id="Path_144" data-name="Path 144" d="M24.137,42.346a.1.1,0,0,0-.163,0l-.763.763a.247.247,0,0,1-.272,0l-.272-.327a.247.247,0,0,1,0-.272l2.343-2.343a.247.247,0,0,1,.272,0l.327.327a.248.248,0,0,1,0,.272l-.763.763a.1.1,0,0,0,0,.163l3.488,3.488a.1.1,0,0,0,.163,0l.817-.817a.248.248,0,0,1,.272,0l.327.327a.247.247,0,0,1,0,.272l-2.452,2.452a.248.248,0,0,1-.272,0l-.327-.327a.247.247,0,0,1,0-.272L27.679,46a.1.1,0,0,0,0-.163Z" transform="translate(-10.284 -18.248)"/>
    <path id="Path_145" data-name="Path 145" d="M36.786,37.443a.247.247,0,0,1,0,.272l-.6.6a.216.216,0,0,1-.272.054l-4.8-2.071a.053.053,0,0,0-.054.054l3.379,3.379a.247.247,0,0,1,0,.272l-.327.327a.247.247,0,0,1-.272,0l-4.577-4.577a.248.248,0,0,1,0-.272l.6-.6a.216.216,0,0,1,.272-.054l4.8,2.071a.053.053,0,0,0,.054-.054l-3.379-3.379a.247.247,0,0,1,0-.272l.327-.327a.247.247,0,0,1,.272,0Z" transform="translate(-13.288 -14.926)"/>
    <path id="Path_146" data-name="Path 146" d="M42.1,32.451a.248.248,0,0,1,0,.272l-.381.381a.247.247,0,0,1-.272,0l-4.577-4.577a.248.248,0,0,1,0-.272l2.289-2.289a.247.247,0,0,1,.272,0l.381.381a.248.248,0,0,1,0,.272l-1.744,1.744a.1.1,0,0,0,0,.163l1.253,1.253a.1.1,0,0,0,.163,0l1.635-1.635a.247.247,0,0,1,.272,0l.381.381a.248.248,0,0,1,0,.272l-1.635,1.635a.1.1,0,0,0,0,.163Z" transform="translate(-16.746 -11.786)"/>
    <path id="Path_147" data-name="Path 147" d="M48.157,20.549a18.576,18.576,0,0,1,2.071,2.071,2.2,2.2,0,0,1-.109,3,2.135,2.135,0,0,1-3,.109,14.872,14.872,0,0,1-2.071-2.071,2.2,2.2,0,0,1,3.106-3.106ZM45.7,23.056a12.408,12.408,0,0,0,2.071,2.071,1.264,1.264,0,0,0,1.689-.109,1.2,1.2,0,0,0,.109-1.689A12.408,12.408,0,0,0,47.5,21.258a1.263,1.263,0,0,0-1.689.109A1.248,1.248,0,0,0,45.7,23.056Z" transform="translate(-20.244 -9.094)"/>
    <path id="Path_148" data-name="Path 148" d="M40.073,59.262a.1.1,0,0,0,.163,0l1.526-1.526a.1.1,0,0,0,0-.163L39.909,55.72a.247.247,0,0,1,0-.272l.381-.381a.247.247,0,0,1,.272,0l4.577,4.577a.247.247,0,0,1,0,.272l-.381.381a.247.247,0,0,1-.272,0l-1.962-1.962a.1.1,0,0,0-.163,0l-1.526,1.58a.1.1,0,0,0,0,.163L42.8,62.041a.247.247,0,0,1,0,.272l-.381.327a.247.247,0,0,1-.272,0l-4.577-4.577a.247.247,0,0,1,0-.272l.381-.381a.248.248,0,0,1,.272,0Z" transform="translate(-17.065 -25.028)"/>
    <path id="Path_149" data-name="Path 149" d="M47.673,52.026a.1.1,0,0,0,.163,0l1.635-1.635a.247.247,0,0,1,.272,0l.381.381a.248.248,0,0,1,0,.272L48.49,52.68a.1.1,0,0,0,0,.163l1.362,1.362a.1.1,0,0,0,.163,0l1.744-1.744a.247.247,0,0,1,.272,0l.381.381a.248.248,0,0,1,0,.272L50.07,55.459a.247.247,0,0,1-.272,0l-4.632-4.632a.247.247,0,0,1,0-.272l2.289-2.289a.247.247,0,0,1,.272,0l.381.381a.247.247,0,0,1,0,.272l-1.744,1.744a.1.1,0,0,0,0,.163Z" transform="translate(-20.523 -21.934)"/>
    <path id="Path_150" data-name="Path 150" d="M55.453,46.485a.1.1,0,0,0,0,.163L57.2,48.392a.247.247,0,0,1,0,.272l-.381.381a.247.247,0,0,1-.272,0l-4.577-4.632a.247.247,0,0,1,0-.272l1.253-1.253a2.007,2.007,0,0,1,2.888,0,2.073,2.073,0,0,1,.545,1.962c-.054.218-.054.327.163.381l2.507.872c.163.054.218.218.054.327L59,46.812a.257.257,0,0,1-.327.054l-2.561-.926c-.054,0-.163-.054-.218.054ZM53.219,44.25a.1.1,0,0,0,0,.163l1.471,1.471a.1.1,0,0,0,.163,0l.654-.654a1.117,1.117,0,0,0-1.58-1.58Z" transform="translate(-23.618 -19.226)"/>
    <path id="Path_151" data-name="Path 151" d="M61.673,38.026a.1.1,0,0,0,.163,0l1.635-1.635a.247.247,0,0,1,.272,0l.381.381a.248.248,0,0,1,0,.272L62.49,38.68a.1.1,0,0,0,0,.163l1.362,1.362a.1.1,0,0,0,.163,0l1.744-1.744a.247.247,0,0,1,.272,0l.381.381a.247.247,0,0,1,0,.272L64.07,41.459a.247.247,0,0,1-.272,0l-4.632-4.632a.247.247,0,0,1,0-.272l2.289-2.289a.247.247,0,0,1,.272,0l.381.381a.247.247,0,0,1,0,.272l-1.744,1.744a.1.1,0,0,0,0,.163Z" transform="translate(-26.894 -15.563)"/>
  </g>
</svg>
